module Client-Server-API

go 1.22.3

require (
	gorm.io/driver/sqlite v1.5.5
	gorm.io/gorm v1.25.10
)

require (
	github.com/jinzhu/inflection v1.0.0 // indirect
	github.com/jinzhu/now v1.1.5 // indirect
	github.com/mattn/go-sqlite3 v1.14.22 // indirect
)
